$date
   Thu Jun 25 10:46:10 2020
$end
$version
  2018.2
$end
$timescale
  1ps
$end
$scope module CSCConv2D_tb $end
$var reg 1 ! clk $end
$var reg 1 " rst_n $end
$var reg 1 # startConv $end
$var reg 16 $ filterCol [15:0] $end
$var reg 16 % filterRow [15:0] $end
$var reg 16 & imageCol [15:0] $end
$var reg 16 ' imageRow [15:0] $end
$var reg 4 ( stride [3:0] $end
$var reg 16 ) f [15:0] $end
$var reg 16 * s [15:0] $end
$var reg 16 + No [15:0] $end
$var wire 40 , featureMapAddress [39:0] $end
$var wire 10 - weightAddress [9:0] $end
$var wire 1 . newMac $end
$var wire 1 / endMac $end
$var wire 1 0 ConvDone $end
$var wire 1 1 isConvRunning $end
$var integer 32 2 period $end
$var integer 32 3 i $end
$var integer 32 4 j $end
$var parameter 32 5 dw [31:0] $end
$var parameter 32 6 awFM [31:0] $end
$var parameter 32 7 awWM [31:0] $end
$var parameter 32 8 PE [31:0] $end
$var parameter 32 9 cw [31:0] $end
$var parameter 32 : fw [31:0] $end
$scope module uut $end
$var wire 1 ; clk $end
$var wire 1 < rst_n $end
$var wire 1 = startConv $end
$var wire 16 > filterCol [15:0] $end
$var wire 16 ? filterRow [15:0] $end
$var wire 16 @ imageCol [15:0] $end
$var wire 16 A imageRow [15:0] $end
$var wire 4 B stride [3:0] $end
$var wire 11 C f [10:0] $end
$var wire 11 D s [10:0] $end
$var wire 11 E No [10:0] $end
$var wire 2 F rtrSignal [1:0] $end
$var wire 40 , featureMapAddress [39:0] $end
$var wire 10 - weightAddress [9:0] $end
$var reg 1 G newMac $end
$var reg 1 H endMac $end
$var reg 1 I ConvDone $end
$var reg 1 J isConvRunning $end
$var reg 1 K firstConv $end
$var reg 1 L nextRow $end
$var reg 1 M nextCol $end
$var reg 3 N currentState [2:0] $end
$var reg 1 O startConv_3 $end
$var reg 1 P startConv_2 $end
$var reg 1 Q startConv_1 $end
$var reg 16 R imageColCnt [15:0] $end
$var reg 16 S imageRowCnt [15:0] $end
$var reg 16 T denseCnt [15:0] $end
$var reg 16 U filterColCnt [15:0] $end
$var reg 16 V filterRowCnt [15:0] $end
$var reg 11 W cntNo [10:0] $end
$var reg 11 X Ni [10:0] $end
$var reg 1 Y resetFilterColCnt $end
$var reg 1 Z resetFilterRowCnt $end
$var reg 1 [ resetImageColCnt $end
$var reg 1 \ resetFilterColCntComb $end
$var reg 1 ] resetImageRowCnt $end
$var reg 1 ^ rtrEn $end
$var reg 1 _ enDense $end
$var reg 1 ` nextCol_1 $end
$var reg 1 a nextCol_2 $end
$var reg 1 b newMac_1 $end
$var reg 11 c cntF [10:0] $end
$var reg 10 d singleImageFMDepth [9:0] $end
$var reg 10 e singleFilterWMDepth [9:0] $end
$var reg 4 f ColDiff [3:0] $end
$var reg 4 g cycRect [3:0] $end
$var reg 10 h lastweightAddress [9:0] $end
$var reg 44 i cntNi [43:0] $end
$var reg 44 j cntNi_i [43:0] $end
$var reg 44 k memAcc [43:0] $end
$var reg 16 l filColxRow [15:0] $end
$var reg 10 m fmAddress_1 [9:0] $end
$var reg 10 n fmAddress_2 [9:0] $end
$var reg 10 o weightAddr_2 [9:0] $end
$var reg 10 p weightAddr_1 [9:0] $end
$var wire 1 q rtrReady $end
$var wire 1 r endMac_1 $end
$var wire 44 s xcntNi [43:0] $end
$var wire 10 t fmAddress [9:0] $end
$var parameter 32 u dw [31:0] $end
$var parameter 32 v awFM [31:0] $end
$var parameter 32 w awWM [31:0] $end
$var parameter 32 x PE [31:0] $end
$var parameter 32 y cw [31:0] $end
$var parameter 32 z fw [31:0] $end
$var parameter 32 { strideW [31:0] $end
$var parameter 32 | cscw [31:0] $end
$var parameter 32 } sameSize [31:0] $end
$var parameter 32 ~ log2PE [31:0] $end
$var parameter 3 !! state_0 [2:0] $end
$var parameter 3 "! state_1 [2:0] $end
$var parameter 3 #! state_2 [2:0] $end
$var parameter 3 $! state_3 [2:0] $end
$var parameter 3 %! state_4 [2:0] $end
$scope module offsetRouter $end
$var wire 1 ; clk $end
$var wire 1 &! en $end
$var wire 2 '! r_in [1:0] $end
$var wire 44 (! in [43:0] $end
$var wire 1 q ready $end
$var wire 44 s out [43:0] $end
$var wire 1 )! ready_ip $end
$var wire 1 *! ready_rtr $end
$var wire 1 +! ready_op $end
$var wire 44 ,! ipRouterOut0 [43:0] $end
$var wire 44 -! ipRouterOut1 [43:0] $end
$var wire 44 .! lastrouterOut0 [43:0] $end
$var wire 44 /! lastrouterOut1 [43:0] $end
$var wire 11 0! in00 [10:0] $end
$var wire 11 1! in01 [10:0] $end
$var wire 11 2! in02 [10:0] $end
$var wire 11 3! in03 [10:0] $end
$var wire 11 4! in10 [10:0] $end
$var wire 11 5! in11 [10:0] $end
$var wire 11 6! in12 [10:0] $end
$var wire 11 7! in13 [10:0] $end
$var wire 11 8! out00 [10:0] $end
$var wire 11 9! out01 [10:0] $end
$var wire 11 :! out02 [10:0] $end
$var wire 11 ;! out03 [10:0] $end
$var wire 11 <! out10 [10:0] $end
$var wire 11 =! out11 [10:0] $end
$var wire 11 >! out12 [10:0] $end
$var wire 11 ?! out13 [10:0] $end
$var reg 1 @! ready_1 $end
$var reg 1 A! ready_2 $end
$var reg 44 B! out_1 [43:0] $end
$var reg 44 C! out_2 [43:0] $end
$var parameter 32 D! dw [31:0] $end
$var parameter 32 E! PE [31:0] $end
$var parameter 32 F! log2PE [31:0] $end
$upscope $end
$upscope $end
$upscope $end
$enddefinitions $end
#0
$dumpvars
0!
b0 !!
0"
b1 "!
0#
b10 #!
b0 $
b11 $!
b0 %
b100 %!
b0 &
0&!
b0 '
b0 '!
b0 (
b11000000000100000000000100000000000 (!
b0 )
z)!
b0 *
z*!
b0 +
z+!
b0 ,
bz ,!
b0 -
bz -!
x.
bz .!
x/
bz /!
00
bz 0!
01
bz 1!
b1010 2
bz 2!
bx 3
bz 3!
bx 4
bz 4!
b1000 5
bz 5!
b1010 6
bz 6!
b1010 7
bz 7!
b100 8
bz 8!
b10000 9
bz 9!
b10000 :
bz :!
0;
bz ;!
0<
bz <!
0=
bz =!
b0 >
bz >!
b0 ?
bz ?!
b0 @
x@!
b0 A
xA!
b0 B
bx B!
b0 C
bx C!
b0 D
b1011 D!
b0 E
b100 E!
b0 F
b10 F!
xG
xH
0I
0J
0K
0L
0M
b0 N
xO
xP
xQ
b0 R
b0 S
b0 T
b0 U
b0 V
b0 W
b0 X
0Y
0Z
0[
x\
0]
0^
0_
x`
xa
xb
b0 c
b0 d
b0 e
b0 f
b1111 g
b0 h
b11000000000100000000000100000000000 i
bx j
b0 k
b0 l
b0 m
b0 n
b0 o
b0 p
xq
0r
bx s
b0 t
b1000 u
b1010 v
b1010 w
b100 x
b10000 y
b10000 z
b100 {
b1011 |
b1 }
b10 ~
$end
#5000
1!
0/
1;
0@!
xA!
b11000000000100000000000100000000000 B!
bx C!
xG
0H
0I
0J
0K
0L
0M
b0 N
xP
0Q
b0 R
b0 S
b0 T
b0 U
b0 V
b0 W
b0 X
0^
0_
0`
0b
b0 c
b0 d
b0 e
b0 f
b1111 g
b0 h
b11000000000100000000000100000000000 i
b0 k
b0 l
b0 m
b0 n
b0 o
b0 p
#10000
0!
1"
0;
1<
0Y
1Z
1[
1]
0r
#15000
1!
0.
1;
0@!
0A!
b11000000000100000000000100000000000 B!
b11000000000100000000000100000000000 C!
0G
0H
0I
0J
1K
0L
0M
b0 N
0P
0Q
b0 R
b0 S
b0 T
b0 W
b0 X
0^
0_
0`
0b
b0 c
b0 f
b1111 g
b0 h
b11000000000100000000000100000000000 i
b11000000000100000000000100000000000 j
b0 k
b0 l
b0 m
b0 n
b0 o
b0 p
0q
b11000000000100000000000100000000000 s
#20000
0!
1#
b10 $
b10 %
b101 &
b101 '
b1 (
b10 )
b1000 *
b1000 +
0;
1=
b10 >
b10 ?
b101 @
b101 A
b1 B
b10 C
b1000 D
b1000 E
0Y
1Z
1[
1]
#25000
1!
1&!
b0 ,
1;
0@!
0A!
b11000000000100000000000100000000000 B!
b11000000000100000000000100000000000 C!
0G
0H
0I
0J
1K
1L
1M
b1 N
0P
1Q
b0 R
b0 S
b0 T
b0 W
b10000 X
0Y
1Z
1[
1]
1^
0_
0`
0b
b0 c
b11001 d
b100 e
b1 f
b1111 g
b0 h
b11000000000100000000000100000000000 i
b11000000000100000000000100000000000 j
b0 k
b0 l
b0 m
b0 n
b0 o
b0 p
#30000
0!
0#
0;
0=
#35000
1!
b1111111100 -
11
1;
1@!
0A!
b11000000000100000000000100000000000 B!
b11000000000100000000000100000000000 C!
0G
0H
1J
0L
0M
b1 N
1P
0Q
b0 R
b0 S
b0 T
1^
1`
0b
b1111 g
b0 k
b0 m
b0 n
b0 o
b1111111100 p
0r
#40000
0!
0;
#45000
1!
1;
1@!
1A!
b11000000000100000000000100000000000 B!
b11000000000100000000000100000000000 C!
0G
0H
1J
0L
0M
b1 N
0P
0Q
b0 R
b0 S
b0 T
1^
0`
0b
b1111 g
b0 k
b0 m
b0 n
b0 o
b1111111100 p
1q
#50000
0!
0;
#55000
1!
0&!
1;
1@!
1A!
b11000000000100000000000100000000000 B!
b11000000000100000000000100000000000 C!
0G
0H
1J
0L
0M
b10 N
0P
0Q
b0 R
b0 S
b0 T
0Y
1Z
1[
1]
0^
0`
1b
b1 c
b1111 g
b0 k
b0 m
b0 n
b0 o
b1111111100 p
#60000
0!
0;
#65000
1!
b0 -
1.
1;
0@!
1A!
b11000000000100000000000100000000000 B!
b11000000000100000000000100000000000 C!
1G
0H
1J
b10 N
0P
0Q
b0 R
b0 S
b0 T
b1 U
b0 V
1Y
1Z
1[
1]
0`
0b
b1 g
b11000000000100000000000100000000000 i
b11000000000100000000000100000000000 j
b0 m
b0 n
b0 o
b0 p
#70000
0!
0;
#75000
1!
b1000000000100000000010000000001 ,
b1 -
0.
1;
0@!
0A!
b11000000000100000000000100000000000 B!
b11000000000100000000000100000000000 C!
0G
0H
1J
b10 N
0P
0Q
b0 R
b0 S
b0 T
b0 U
b1 V
0Y
1Z
1[
1]
0`
0b
b1 g
b11000000000100000000000100000000000 i
b11000000000100000000000100000000000 j
b0 m
b1 n
b0 o
b1 p
0q
b1 t
#80000
0!
0;
#85000
1!
b101000000010100000001010000000101 ,
b10 -
1;
0@!
0A!
b11000000000100000000000100000000000 B!
b11000000000100000000000100000000000 C!
0G
0H
1J
b10 N
0P
0Q
b0 R
b0 S
b0 T
b1 U
b1 V
1Y
0Z
1[
1]
0`
0b
b1 g
b11000000000100000000000100000000000 i
b11000000000100000000000100000000000 j
b101 m
b0 n
b10 o
b0 p
1r
b101 t
#90000
0!
0;
#95000
1!
b110000000011000000001100000000110 ,
b11 -
1/
1;
0@!
0A!
b11000000000100000000000100000000000 B!
b11000000000100000000000100000000000 C!
0G
1H
1J
b10 N
0P
0Q
b1 R
b0 S
b0 T
b0 U
b0 V
0Y
1Z
1[
1]
0`
1b
b1 g
b11000000000100000000000100000000000 i
b11000000000100000000000100000000000 j
b101 m
b1 n
b10 o
b1 p
0r
b110 t
#100000
0!
0;
#105000
1!
b1000000000100000000010000000001 ,
b0 -
1.
0/
1;
0@!
0A!
b11000000000100000000000100000000000 B!
b11000000000100000000000100000000000 C!
1G
0H
1J
b10 N
0P
0Q
b1 R
b0 S
b0 T
b1 U
b0 V
1Y
1Z
1[
1]
0`
0b
b1 g
b11000000000100000000000100000000000 i
b11000000000100000000000100000000000 j
b0 m
b1 n
b0 o
b0 p
b1 t
#110000
0!
0;
#115000
1!
b10000000001000000000100000000010 ,
b1 -
0.
1;
0@!
0A!
b11000000000100000000000100000000000 B!
b11000000000100000000000100000000000 C!
0G
0H
1J
b10 N
0P
0Q
b1 R
b0 S
b0 T
b0 U
b1 V
0Y
1Z
1[
1]
0`
0b
b1 g
b11000000000100000000000100000000000 i
b11000000000100000000000100000000000 j
b0 m
b10 n
b0 o
b1 p
b10 t
#120000
0!
0;
#125000
1!
b110000000011000000001100000000110 ,
b10 -
1;
0@!
0A!
b11000000000100000000000100000000000 B!
b11000000000100000000000100000000000 C!
0G
0H
1J
b10 N
0P
0Q
b1 R
b0 S
b0 T
b1 U
b1 V
1Y
0Z
1[
1]
0`
0b
b1 g
b11000000000100000000000100000000000 i
b11000000000100000000000100000000000 j
b101 m
b1 n
b10 o
b0 p
1r
b110 t
#130000
0!
0;
#135000
1!
b111000000011100000001110000000111 ,
b11 -
1/
1;
0@!
0A!
b11000000000100000000000100000000000 B!
b11000000000100000000000100000000000 C!
0G
1H
1J
b10 N
0P
0Q
b10 R
b0 S
b0 T
b0 U
b0 V
0Y
1Z
1[
1]
0`
1b
b1 g
b11000000000100000000000100000000000 i
b11000000000100000000000100000000000 j
b101 m
b10 n
b10 o
b1 p
0r
b111 t
#140000
0!
0;
#145000
1!
b10000000001000000000100000000010 ,
b0 -
1.
0/
1;
0@!
0A!
b11000000000100000000000100000000000 B!
b11000000000100000000000100000000000 C!
1G
0H
1J
b10 N
0P
0Q
b10 R
b0 S
b0 T
b1 U
b0 V
1Y
1Z
1[
1]
0`
0b
b1 g
b11000000000100000000000100000000000 i
b11000000000100000000000100000000000 j
b0 m
b10 n
b0 o
b0 p
b10 t
#150000
0!
0;
#155000
1!
b11000000001100000000110000000011 ,
b1 -
0.
1;
0@!
0A!
b11000000000100000000000100000000000 B!
b11000000000100000000000100000000000 C!
0G
0H
1J
b10 N
0P
0Q
b10 R
b0 S
b0 T
b0 U
b1 V
0Y
1Z
1[
1]
0`
0b
b1 g
b11000000000100000000000100000000000 i
b11000000000100000000000100000000000 j
b0 m
b11 n
b0 o
b1 p
b11 t
#160000
0!
0;
#165000
1!
b111000000011100000001110000000111 ,
b10 -
1;
0@!
0A!
b11000000000100000000000100000000000 B!
b11000000000100000000000100000000000 C!
0G
0H
1J
b10 N
0P
0Q
b10 R
b0 S
b0 T
b1 U
b1 V
1Y
0Z
1[
1]
0`
0b
b1 g
b11000000000100000000000100000000000 i
b11000000000100000000000100000000000 j
b101 m
b10 n
b10 o
b0 p
1r
b111 t
#170000
0!
0;
#175000
1!
b1000000000100000000010000000001000 ,
b11 -
1/
1;
0@!
0A!
b11000000000100000000000100000000000 B!
b11000000000100000000000100000000000 C!
0G
1H
1J
b10 N
0P
0Q
b11 R
b0 S
b0 T
b0 U
b0 V
0Y
1Z
1[
1]
0`
1b
b1 g
b11000000000100000000000100000000000 i
b11000000000100000000000100000000000 j
b101 m
b11 n
b10 o
b1 p
0r
b1000 t
#180000
0!
0;
#185000
1!
b11000000001100000000110000000011 ,
b0 -
1.
0/
1;
0@!
0A!
b11000000000100000000000100000000000 B!
b11000000000100000000000100000000000 C!
1G
0H
1J
b10 N
0P
0Q
b11 R
b0 S
b0 T
b1 U
b0 V
1Y
1Z
1[
1]
0`
0b
b1 g
b11000000000100000000000100000000000 i
b11000000000100000000000100000000000 j
b0 m
b11 n
b0 o
b0 p
b11 t
#190000
0!
0;
#195000
1!
b100000000010000000001000000000100 ,
b1 -
0.
1;
0@!
0A!
b11000000000100000000000100000000000 B!
b11000000000100000000000100000000000 C!
0G
0H
1J
b10 N
0P
0Q
b11 R
b0 S
b0 T
b0 U
b1 V
0Y
1Z
1[
1]
0`
0b
b1 g
b11000000000100000000000100000000000 i
b11000000000100000000000100000000000 j
b0 m
b100 n
b0 o
b1 p
b100 t
#200000
0!
0;
#205000
1!
b1000000000100000000010000000001000 ,
b10 -
1;
0@!
0A!
b11000000000100000000000100000000000 B!
b11000000000100000000000100000000000 C!
0G
0H
1J
b10 N
0P
0Q
b11 R
b0 S
b0 T
b1 U
b1 V
1Y
0Z
1[
1]
0`
0b
b1 g
b11000000000100000000000100000000000 i
b11000000000100000000000100000000000 j
b101 m
b11 n
b10 o
b0 p
1r
b1000 t
#210000
0!
0;
#215000
1!
b1001000000100100000010010000001001 ,
b11 -
1/
1;
0@!
0A!
b11000000000100000000000100000000000 B!
b11000000000100000000000100000000000 C!
0G
1H
1J
b10 N
0P
0Q
b100 R
b0 S
b0 T
b0 U
b0 V
0Y
1Z
1[
1]
0`
1b
b1 g
b11000000000100000000000100000000000 i
b11000000000100000000000100000000000 j
b101 m
b100 n
b10 o
b1 p
0r
b1001 t
#220000
0!
0;
#225000
1!
b100000000010000000001000000000100 ,
b0 -
1.
0/
1;
0@!
0A!
b11000000000100000000000100000000000 B!
b11000000000100000000000100000000000 C!
1G
0H
1J
b10 N
0P
0Q
b100 R
b0 S
b0 T
b1 U
b0 V
1Y
1Z
1[
1]
0`
0b
b1 g
b11000000000100000000000100000000000 i
b11000000000100000000000100000000000 j
b0 m
b100 n
b0 o
b0 p
b100 t
#230000
0!
0;
#235000
1!
b101000000010100000001010000000101 ,
b1 -
0.
1;
0@!
0A!
b11000000000100000000000100000000000 B!
b11000000000100000000000100000000000 C!
0G
0H
1J
b10 N
0P
0Q
b100 R
b0 S
b0 T
b0 U
b1 V
0Y
1Z
1[
1]
0`
0b
b1 g
b11000000000100000000000100000000000 i
b11000000000100000000000100000000000 j
b0 m
b101 n
b0 o
b1 p
b101 t
#240000
0!
0;
#245000
1!
b1001000000100100000010010000001001 ,
b10 -
1;
0@!
0A!
b11000000000100000000000100000000000 B!
b11000000000100000000000100000000000 C!
0G
0H
1J
b10 N
0P
0Q
b100 R
b0 S
b0 T
b1 U
b1 V
1Y
0Z
1[
1]
0`
0b
b1 g
b11000000000100000000000100000000000 i
b11000000000100000000000100000000000 j
b101 m
b100 n
b10 o
b0 p
1r
b1001 t
#250000
0!
0;
#255000
1!
b1010000000101000000010100000001010 ,
b11 -
1/
1;
0@!
0A!
b11000000000100000000000100000000000 B!
b11000000000100000000000100000000000 C!
0G
1H
1J
b10 N
0P
0Q
b101 R
b0 S
b0 T
b0 U
b0 V
0Y
1Z
1[
1]
0`
1b
b1 g
b11000000000100000000000100000000000 i
b11000000000100000000000100000000000 j
b101 m
b101 n
b10 o
b1 p
0r
b1010 t
#260000
0!
0;
#265000
1!
b101000000010100000001010000000101 ,
b0 -
1.
0/
1;
0@!
0A!
b11000000000100000000000100000000000 B!
b11000000000100000000000100000000000 C!
1G
0H
1J
b10 N
0P
0Q
b101 R
b0 S
b0 T
b1 U
b0 V
1Y
1Z
1[
1]
0`
0b
b1 g
b11000000000100000000000100000000000 i
b11000000000100000000000100000000000 j
b0 m
b101 n
b0 o
b0 p
b101 t
#270000
0!
0;
#275000
1!
b110000000011000000001100000000110 ,
b1 -
0.
1;
0@!
0A!
b11000000000100000000000100000000000 B!
b11000000000100000000000100000000000 C!
0G
0H
1J
b10 N
0P
0Q
b101 R
b0 S
b0 T
b0 U
b1 V
0Y
1Z
1[
1]
0`
0b
b1 g
b11000000000100000000000100000000000 i
b11000000000100000000000100000000000 j
b0 m
b110 n
b0 o
b1 p
b110 t
#280000
0!
0;
#285000
1!
b1010000000101000000010100000001010 ,
b10 -
1;
0@!
0A!
b11000000000100000000000100000000000 B!
b11000000000100000000000100000000000 C!
0G
0H
1J
b10 N
0P
0Q
b101 R
b0 S
b0 T
b1 U
b1 V
1Y
0Z
0[
1]
0`
0b
b1 g
b11000000000100000000000100000000000 i
b11000000000100000000000100000000000 j
b101 m
b101 n
b10 o
b0 p
1r
b1010 t
#290000
0!
0;
#295000
1!
b1011000000101100000010110000001011 ,
b11 -
1/
1;
0@!
0A!
b11000000000100000000000100000000000 B!
b11000000000100000000000100000000000 C!
0G
1H
1J
b10 N
0P
0Q
b0 R
b1 S
b0 T
b0 U
b0 V
0Y
1Z
1[
1]
0`
1b
b1 g
b11000000000100000000000100000000000 i
b11000000000100000000000100000000000 j
b101 m
b110 n
b10 o
b1 p
0r
b1011 t
#300000
0!
0;
#305000
1!
b101000000010100000001010000000101 ,
b0 -
1.
0/
1;
0@!
0A!
b11000000000100000000000100000000000 B!
b11000000000100000000000100000000000 C!
1G
0H
1J
b10 N
0P
0Q
b0 R
b1 S
b0 T
b1 U
b0 V
1Y
1Z
1[
1]
0`
0b
b1 g
b11000000000100000000000100000000000 i
b11000000000100000000000100000000000 j
b101 m
b0 n
b0 o
b0 p
b101 t
#310000
0!
0;
#315000
1!
b110000000011000000001100000000110 ,
b1 -
0.
1;
0@!
0A!
b11000000000100000000000100000000000 B!
b11000000000100000000000100000000000 C!
0G
0H
1J
b10 N
0P
0Q
b0 R
b1 S
b0 T
b0 U
b1 V
0Y
1Z
1[
1]
0`
0b
b1 g
b11000000000100000000000100000000000 i
b11000000000100000000000100000000000 j
b101 m
b1 n
b0 o
b1 p
b110 t
#320000
0!
0;
#325000
1!
b1010000000101000000010100000001010 ,
b10 -
1;
0@!
0A!
b11000000000100000000000100000000000 B!
b11000000000100000000000100000000000 C!
0G
0H
1J
b10 N
0P
0Q
b0 R
b1 S
b0 T
b1 U
b1 V
1Y
0Z
1[
1]
0`
0b
b1 g
b11000000000100000000000100000000000 i
b11000000000100000000000100000000000 j
b1010 m
b0 n
b10 o
b0 p
1r
b1010 t
#330000
0!
0;
#335000
1!
b1011000000101100000010110000001011 ,
b11 -
1/
1;
0@!
0A!
b11000000000100000000000100000000000 B!
b11000000000100000000000100000000000 C!
0G
1H
1J
b10 N
0P
0Q
b1 R
b1 S
b0 T
b0 U
b0 V
0Y
1Z
1[
1]
0`
1b
b1 g
b11000000000100000000000100000000000 i
b11000000000100000000000100000000000 j
b1010 m
b1 n
b10 o
b1 p
0r
b1011 t
#340000
0!
0;
#345000
1!
b110000000011000000001100000000110 ,
b0 -
1.
0/
1;
0@!
0A!
b11000000000100000000000100000000000 B!
b11000000000100000000000100000000000 C!
1G
0H
1J
b10 N
0P
0Q
b1 R
b1 S
b0 T
b1 U
b0 V
1Y
1Z
1[
1]
0`
0b
b1 g
b11000000000100000000000100000000000 i
b11000000000100000000000100000000000 j
b101 m
b1 n
b0 o
b0 p
b110 t
#350000
0!
0;
#355000
1!
b111000000011100000001110000000111 ,
b1 -
0.
1;
0@!
0A!
b11000000000100000000000100000000000 B!
b11000000000100000000000100000000000 C!
0G
0H
1J
b10 N
0P
0Q
b1 R
b1 S
b0 T
b0 U
b1 V
0Y
1Z
1[
1]
0`
0b
b1 g
b11000000000100000000000100000000000 i
b11000000000100000000000100000000000 j
b101 m
b10 n
b0 o
b1 p
b111 t
#360000
0!
0;
#365000
1!
b1011000000101100000010110000001011 ,
b10 -
1;
0@!
0A!
b11000000000100000000000100000000000 B!
b11000000000100000000000100000000000 C!
0G
0H
1J
b10 N
0P
0Q
b1 R
b1 S
b0 T
b1 U
b1 V
1Y
0Z
1[
1]
0`
0b
b1 g
b11000000000100000000000100000000000 i
b11000000000100000000000100000000000 j
b1010 m
b1 n
b10 o
b0 p
1r
b1011 t
#370000
0!
0;
#375000
1!
b1100000000110000000011000000001100 ,
b11 -
1/
1;
0@!
0A!
b11000000000100000000000100000000000 B!
b11000000000100000000000100000000000 C!
0G
1H
1J
b10 N
0P
0Q
b10 R
b1 S
b0 T
b0 U
b0 V
0Y
1Z
1[
1]
0`
1b
b1 g
b11000000000100000000000100000000000 i
b11000000000100000000000100000000000 j
b1010 m
b10 n
b10 o
b1 p
0r
b1100 t
#380000
0!
0;
#385000
1!
b111000000011100000001110000000111 ,
b0 -
1.
0/
1;
0@!
0A!
b11000000000100000000000100000000000 B!
b11000000000100000000000100000000000 C!
1G
0H
1J
b10 N
0P
0Q
b10 R
b1 S
b0 T
b1 U
b0 V
1Y
1Z
1[
1]
0`
0b
b1 g
b11000000000100000000000100000000000 i
b11000000000100000000000100000000000 j
b101 m
b10 n
b0 o
b0 p
b111 t
#390000
0!
0;
#395000
1!
b1000000000100000000010000000001000 ,
b1 -
0.
1;
0@!
0A!
b11000000000100000000000100000000000 B!
b11000000000100000000000100000000000 C!
0G
0H
1J
b10 N
0P
0Q
b10 R
b1 S
b0 T
b0 U
b1 V
0Y
1Z
1[
1]
0`
0b
b1 g
b11000000000100000000000100000000000 i
b11000000000100000000000100000000000 j
b101 m
b11 n
b0 o
b1 p
b1000 t
#400000
0!
0;
#405000
1!
b1100000000110000000011000000001100 ,
b10 -
1;
0@!
0A!
b11000000000100000000000100000000000 B!
b11000000000100000000000100000000000 C!
0G
0H
1J
b10 N
0P
0Q
b10 R
b1 S
b0 T
b1 U
b1 V
1Y
0Z
1[
1]
0`
0b
b1 g
b11000000000100000000000100000000000 i
b11000000000100000000000100000000000 j
b1010 m
b10 n
b10 o
b0 p
1r
b1100 t
#410000
0!
0;
#415000
1!
b1101000000110100000011010000001101 ,
b11 -
1/
1;
0@!
0A!
b11000000000100000000000100000000000 B!
b11000000000100000000000100000000000 C!
0G
1H
1J
b10 N
0P
0Q
b11 R
b1 S
b0 T
b0 U
b0 V
0Y
1Z
1[
1]
0`
1b
b1 g
b11000000000100000000000100000000000 i
b11000000000100000000000100000000000 j
b1010 m
b11 n
b10 o
b1 p
0r
b1101 t
#420000
0!
0;
#425000
1!
b1000000000100000000010000000001000 ,
b0 -
1.
0/
1;
0@!
0A!
b11000000000100000000000100000000000 B!
b11000000000100000000000100000000000 C!
1G
0H
1J
b10 N
0P
0Q
b11 R
b1 S
b0 T
b1 U
b0 V
1Y
1Z
1[
1]
0`
0b
b1 g
b11000000000100000000000100000000000 i
b11000000000100000000000100000000000 j
b101 m
b11 n
b0 o
b0 p
b1000 t
#430000
0!
0;
#435000
1!
b1001000000100100000010010000001001 ,
b1 -
0.
1;
0@!
0A!
b11000000000100000000000100000000000 B!
b11000000000100000000000100000000000 C!
0G
0H
1J
b10 N
0P
0Q
b11 R
b1 S
b0 T
b0 U
b1 V
0Y
1Z
1[
1]
0`
0b
b1 g
b11000000000100000000000100000000000 i
b11000000000100000000000100000000000 j
b101 m
b100 n
b0 o
b1 p
b1001 t
#440000
0!
0;
#445000
1!
b1101000000110100000011010000001101 ,
b10 -
1;
0@!
0A!
b11000000000100000000000100000000000 B!
b11000000000100000000000100000000000 C!
0G
0H
1J
b10 N
0P
0Q
b11 R
b1 S
b0 T
b1 U
b1 V
1Y
0Z
1[
1]
0`
0b
b1 g
b11000000000100000000000100000000000 i
b11000000000100000000000100000000000 j
b1010 m
b11 n
b10 o
b0 p
1r
b1101 t
#450000
0!
0;
#455000
1!
b1110000000111000000011100000001110 ,
b11 -
1/
1;
0@!
0A!
b11000000000100000000000100000000000 B!
b11000000000100000000000100000000000 C!
0G
1H
1J
b10 N
0P
0Q
b100 R
b1 S
b0 T
b0 U
b0 V
0Y
1Z
1[
1]
0`
1b
b1 g
b11000000000100000000000100000000000 i
b11000000000100000000000100000000000 j
b1010 m
b100 n
b10 o
b1 p
0r
b1110 t
#460000
0!
0;
#465000
1!
b1001000000100100000010010000001001 ,
b0 -
1.
0/
1;
0@!
0A!
b11000000000100000000000100000000000 B!
b11000000000100000000000100000000000 C!
1G
0H
1J
b10 N
0P
0Q
b100 R
b1 S
b0 T
b1 U
b0 V
1Y
1Z
1[
1]
0`
0b
b1 g
b11000000000100000000000100000000000 i
b11000000000100000000000100000000000 j
b101 m
b100 n
b0 o
b0 p
b1001 t
#470000
0!
0;
#475000
1!
b1010000000101000000010100000001010 ,
b1 -
0.
1;
0@!
0A!
b11000000000100000000000100000000000 B!
b11000000000100000000000100000000000 C!
0G
0H
1J
b10 N
0P
0Q
b100 R
b1 S
b0 T
b0 U
b1 V
0Y
1Z
1[
1]
0`
0b
b1 g
b11000000000100000000000100000000000 i
b11000000000100000000000100000000000 j
b101 m
b101 n
b0 o
b1 p
b1010 t
#480000
0!
0;
#485000
1!
b1110000000111000000011100000001110 ,
b10 -
1;
0@!
0A!
b11000000000100000000000100000000000 B!
b11000000000100000000000100000000000 C!
0G
0H
1J
b10 N
0P
0Q
b100 R
b1 S
b0 T
b1 U
b1 V
1Y
0Z
1[
1]
0`
0b
b1 g
b11000000000100000000000100000000000 i
b11000000000100000000000100000000000 j
b1010 m
b100 n
b10 o
b0 p
1r
b1110 t
#490000
0!
0;
#495000
1!
b1111000000111100000011110000001111 ,
b11 -
1/
1;
0@!
0A!
b11000000000100000000000100000000000 B!
b11000000000100000000000100000000000 C!
0G
1H
1J
b10 N
0P
0Q
b101 R
b1 S
b0 T
b0 U
b0 V
0Y
1Z
1[
1]
0`
1b
b1 g
b11000000000100000000000100000000000 i
b11000000000100000000000100000000000 j
b1010 m
b101 n
b10 o
b1 p
0r
b1111 t
#500000
0!
0;
#505000
1!
b1010000000101000000010100000001010 ,
b0 -
1.
0/
1;
0@!
0A!
b11000000000100000000000100000000000 B!
b11000000000100000000000100000000000 C!
1G
0H
1J
b10 N
0P
0Q
b101 R
b1 S
b0 T
b1 U
b0 V
1Y
1Z
1[
1]
0`
0b
b1 g
b11000000000100000000000100000000000 i
b11000000000100000000000100000000000 j
b101 m
b101 n
b0 o
b0 p
b1010 t
#510000
0!
0;
#515000
1!
b1011000000101100000010110000001011 ,
b1 -
0.
1;
0@!
0A!
b11000000000100000000000100000000000 B!
b11000000000100000000000100000000000 C!
0G
0H
1J
b10 N
0P
0Q
b101 R
b1 S
b0 T
b0 U
b1 V
0Y
1Z
1[
1]
0`
0b
b1 g
b11000000000100000000000100000000000 i
b11000000000100000000000100000000000 j
b101 m
b110 n
b0 o
b1 p
b1011 t
#520000
0!
0;
#525000
1!
b1111000000111100000011110000001111 ,
b10 -
1;
0@!
0A!
b11000000000100000000000100000000000 B!
b11000000000100000000000100000000000 C!
0G
0H
1J
b10 N
0P
0Q
b101 R
b1 S
b0 T
b1 U
b1 V
1Y
0Z
0[
1]
0`
0b
b1 g
b11000000000100000000000100000000000 i
b11000000000100000000000100000000000 j
b1010 m
b101 n
b10 o
b0 p
1r
b1111 t
#530000
0!
0;
#535000
1!
b10000000001000000000100000000010000 ,
b11 -
1/
1;
0@!
0A!
b11000000000100000000000100000000000 B!
b11000000000100000000000100000000000 C!
0G
1H
1J
b10 N
0P
0Q
b0 R
b10 S
b0 T
b0 U
b0 V
0Y
1Z
1[
1]
0`
1b
b1 g
b11000000000100000000000100000000000 i
b11000000000100000000000100000000000 j
b1010 m
b110 n
b10 o
b1 p
0r
b10000 t
#540000
0!
0;
#545000
1!
b1010000000101000000010100000001010 ,
b0 -
1.
0/
1;
0@!
0A!
b11000000000100000000000100000000000 B!
b11000000000100000000000100000000000 C!
1G
0H
1J
b10 N
0P
0Q
b0 R
b10 S
b0 T
b1 U
b0 V
1Y
1Z
1[
1]
0`
0b
b1 g
b11000000000100000000000100000000000 i
b11000000000100000000000100000000000 j
b1010 m
b0 n
b0 o
b0 p
b1010 t
#550000
0!
0;
#555000
1!
b1011000000101100000010110000001011 ,
b1 -
0.
1;
0@!
0A!
b11000000000100000000000100000000000 B!
b11000000000100000000000100000000000 C!
0G
0H
1J
b10 N
0P
0Q
b0 R
b10 S
b0 T
b0 U
b1 V
0Y
1Z
1[
1]
0`
0b
b1 g
b11000000000100000000000100000000000 i
b11000000000100000000000100000000000 j
b1010 m
b1 n
b0 o
b1 p
b1011 t
#560000
0!
0;
#565000
1!
b1111000000111100000011110000001111 ,
b10 -
1;
0@!
0A!
b11000000000100000000000100000000000 B!
b11000000000100000000000100000000000 C!
0G
0H
1J
b10 N
0P
0Q
b0 R
b10 S
b0 T
b1 U
b1 V
1Y
0Z
1[
1]
0`
0b
b1 g
b11000000000100000000000100000000000 i
b11000000000100000000000100000000000 j
b1111 m
b0 n
b10 o
b0 p
1r
b1111 t
#570000
0!
0;
#575000
1!
b10000000001000000000100000000010000 ,
b11 -
1/
1;
0@!
0A!
b11000000000100000000000100000000000 B!
b11000000000100000000000100000000000 C!
0G
1H
1J
b10 N
0P
0Q
b1 R
b10 S
b0 T
b0 U
b0 V
0Y
1Z
1[
1]
0`
1b
b1 g
b11000000000100000000000100000000000 i
b11000000000100000000000100000000000 j
b1111 m
b1 n
b10 o
b1 p
0r
b10000 t
#580000
0!
0;
#585000
1!
b1011000000101100000010110000001011 ,
b0 -
1.
0/
1;
0@!
0A!
b11000000000100000000000100000000000 B!
b11000000000100000000000100000000000 C!
1G
0H
1J
b10 N
0P
0Q
b1 R
b10 S
b0 T
b1 U
b0 V
1Y
1Z
1[
1]
0`
0b
b1 g
b11000000000100000000000100000000000 i
b11000000000100000000000100000000000 j
b1010 m
b1 n
b0 o
b0 p
b1011 t
#590000
0!
0;
#595000
1!
b1100000000110000000011000000001100 ,
b1 -
0.
1;
0@!
0A!
b11000000000100000000000100000000000 B!
b11000000000100000000000100000000000 C!
0G
0H
1J
b10 N
0P
0Q
b1 R
b10 S
b0 T
b0 U
b1 V
0Y
1Z
1[
1]
0`
0b
b1 g
b11000000000100000000000100000000000 i
b11000000000100000000000100000000000 j
b1010 m
b10 n
b0 o
b1 p
b1100 t
#600000
0!
0;
#605000
1!
b10000000001000000000100000000010000 ,
b10 -
1;
0@!
0A!
b11000000000100000000000100000000000 B!
b11000000000100000000000100000000000 C!
0G
0H
1J
b10 N
0P
0Q
b1 R
b10 S
b0 T
b1 U
b1 V
1Y
0Z
1[
1]
0`
0b
b1 g
b11000000000100000000000100000000000 i
b11000000000100000000000100000000000 j
b1111 m
b1 n
b10 o
b0 p
1r
b10000 t
#610000
0!
0;
#615000
1!
b10001000001000100000100010000010001 ,
b11 -
1/
1;
0@!
0A!
b11000000000100000000000100000000000 B!
b11000000000100000000000100000000000 C!
0G
1H
1J
b10 N
0P
0Q
b10 R
b10 S
b0 T
b0 U
b0 V
0Y
1Z
1[
1]
0`
1b
b1 g
b11000000000100000000000100000000000 i
b11000000000100000000000100000000000 j
b1111 m
b10 n
b10 o
b1 p
0r
b10001 t
#620000
0!
0;
#625000
1!
b1100000000110000000011000000001100 ,
b0 -
1.
0/
1;
0@!
0A!
b11000000000100000000000100000000000 B!
b11000000000100000000000100000000000 C!
1G
0H
1J
b10 N
0P
0Q
b10 R
b10 S
b0 T
b1 U
b0 V
1Y
1Z
1[
1]
0`
0b
b1 g
b11000000000100000000000100000000000 i
b11000000000100000000000100000000000 j
b1010 m
b10 n
b0 o
b0 p
b1100 t
#630000
0!
0;
#635000
1!
b1101000000110100000011010000001101 ,
b1 -
0.
1;
0@!
0A!
b11000000000100000000000100000000000 B!
b11000000000100000000000100000000000 C!
0G
0H
1J
b10 N
0P
0Q
b10 R
b10 S
b0 T
b0 U
b1 V
0Y
1Z
1[
1]
0`
0b
b1 g
b11000000000100000000000100000000000 i
b11000000000100000000000100000000000 j
b1010 m
b11 n
b0 o
b1 p
b1101 t
#640000
0!
0;
#645000
1!
b10001000001000100000100010000010001 ,
b10 -
1;
0@!
0A!
b11000000000100000000000100000000000 B!
b11000000000100000000000100000000000 C!
0G
0H
1J
b10 N
0P
0Q
b10 R
b10 S
b0 T
b1 U
b1 V
1Y
0Z
1[
1]
0`
0b
b1 g
b11000000000100000000000100000000000 i
b11000000000100000000000100000000000 j
b1111 m
b10 n
b10 o
b0 p
1r
b10001 t
#650000
0!
0;
#655000
1!
b10010000001001000000100100000010010 ,
b11 -
1/
1;
0@!
0A!
b11000000000100000000000100000000000 B!
b11000000000100000000000100000000000 C!
0G
1H
1J
b10 N
0P
0Q
b11 R
b10 S
b0 T
b0 U
b0 V
0Y
1Z
1[
1]
0`
1b
b1 g
b11000000000100000000000100000000000 i
b11000000000100000000000100000000000 j
b1111 m
b11 n
b10 o
b1 p
0r
b10010 t
#660000
0!
0;
#665000
1!
b1101000000110100000011010000001101 ,
b0 -
1.
0/
1;
0@!
0A!
b11000000000100000000000100000000000 B!
b11000000000100000000000100000000000 C!
1G
0H
1J
b10 N
0P
0Q
b11 R
b10 S
b0 T
b1 U
b0 V
1Y
1Z
1[
1]
0`
0b
b1 g
b11000000000100000000000100000000000 i
b11000000000100000000000100000000000 j
b1010 m
b11 n
b0 o
b0 p
b1101 t
#670000
0!
0;
#675000
1!
b1110000000111000000011100000001110 ,
b1 -
0.
1;
0@!
0A!
b11000000000100000000000100000000000 B!
b11000000000100000000000100000000000 C!
0G
0H
1J
b10 N
0P
0Q
b11 R
b10 S
b0 T
b0 U
b1 V
0Y
1Z
1[
1]
0`
0b
b1 g
b11000000000100000000000100000000000 i
b11000000000100000000000100000000000 j
b1010 m
b100 n
b0 o
b1 p
b1110 t
#680000
0!
0;
#685000
1!
b10010000001001000000100100000010010 ,
b10 -
1;
0@!
0A!
b11000000000100000000000100000000000 B!
b11000000000100000000000100000000000 C!
0G
0H
1J
b10 N
0P
0Q
b11 R
b10 S
b0 T
b1 U
b1 V
1Y
0Z
1[
1]
0`
0b
b1 g
b11000000000100000000000100000000000 i
b11000000000100000000000100000000000 j
b1111 m
b11 n
b10 o
b0 p
1r
b10010 t
#690000
0!
0;
#695000
1!
b10011000001001100000100110000010011 ,
b11 -
1/
1;
0@!
0A!
b11000000000100000000000100000000000 B!
b11000000000100000000000100000000000 C!
0G
1H
1J
b10 N
0P
0Q
b100 R
b10 S
b0 T
b0 U
b0 V
0Y
1Z
1[
1]
0`
1b
b1 g
b11000000000100000000000100000000000 i
b11000000000100000000000100000000000 j
b1111 m
b100 n
b10 o
b1 p
0r
b10011 t
#700000
0!
0;
#705000
1!
b1110000000111000000011100000001110 ,
b0 -
1.
0/
1;
0@!
0A!
b11000000000100000000000100000000000 B!
b11000000000100000000000100000000000 C!
1G
0H
1J
b10 N
0P
0Q
b100 R
b10 S
b0 T
b1 U
b0 V
1Y
1Z
1[
1]
0`
0b
b1 g
b11000000000100000000000100000000000 i
b11000000000100000000000100000000000 j
b1010 m
b100 n
b0 o
b0 p
b1110 t
#710000
0!
0;
#715000
1!
b1111000000111100000011110000001111 ,
b1 -
0.
1;
0@!
0A!
b11000000000100000000000100000000000 B!
b11000000000100000000000100000000000 C!
0G
0H
1J
b10 N
0P
0Q
b100 R
b10 S
b0 T
b0 U
b1 V
0Y
1Z
1[
1]
0`
0b
b1 g
b11000000000100000000000100000000000 i
b11000000000100000000000100000000000 j
b1010 m
b101 n
b0 o
b1 p
b1111 t
#720000
0!
0;
#725000
1!
b10011000001001100000100110000010011 ,
b10 -
1;
0@!
0A!
b11000000000100000000000100000000000 B!
b11000000000100000000000100000000000 C!
0G
0H
1J
b10 N
0P
0Q
b100 R
b10 S
b0 T
b1 U
b1 V
1Y
0Z
1[
1]
0`
0b
b1 g
b11000000000100000000000100000000000 i
b11000000000100000000000100000000000 j
b1111 m
b100 n
b10 o
b0 p
1r
b10011 t
#730000
0!
0;
#735000
1!
b10100000001010000000101000000010100 ,
b11 -
1/
1;
0@!
0A!
b11000000000100000000000100000000000 B!
b11000000000100000000000100000000000 C!
0G
1H
1J
b10 N
0P
0Q
b101 R
b10 S
b0 T
b0 U
b0 V
0Y
1Z
1[
1]
0`
1b
b1 g
b11000000000100000000000100000000000 i
b11000000000100000000000100000000000 j
b1111 m
b101 n
b10 o
b1 p
0r
b10100 t
#740000
0!
0;
#745000
1!
b1111000000111100000011110000001111 ,
b0 -
1.
0/
1;
0@!
0A!
b11000000000100000000000100000000000 B!
b11000000000100000000000100000000000 C!
1G
0H
1J
b10 N
0P
0Q
b101 R
b10 S
b0 T
b1 U
b0 V
1Y
1Z
1[
1]
0`
0b
b1 g
b11000000000100000000000100000000000 i
b11000000000100000000000100000000000 j
b1010 m
b101 n
b0 o
b0 p
b1111 t
#750000
0!
0;
#755000
1!
b10000000001000000000100000000010000 ,
b1 -
0.
1;
0@!
0A!
b11000000000100000000000100000000000 B!
b11000000000100000000000100000000000 C!
0G
0H
1J
b10 N
0P
0Q
b101 R
b10 S
b0 T
b0 U
b1 V
0Y
1Z
1[
1]
0`
0b
b1 g
b11000000000100000000000100000000000 i
b11000000000100000000000100000000000 j
b1010 m
b110 n
b0 o
b1 p
b10000 t
#760000
0!
0;
#765000
1!
b10100000001010000000101000000010100 ,
b10 -
1;
0@!
0A!
b11000000000100000000000100000000000 B!
b11000000000100000000000100000000000 C!
0G
0H
1J
b10 N
0P
0Q
b101 R
b10 S
b0 T
b1 U
b1 V
1Y
0Z
0[
1]
0`
0b
b1 g
b11000000000100000000000100000000000 i
b11000000000100000000000100000000000 j
b1111 m
b101 n
b10 o
b0 p
1r
b10100 t
#770000
0!
0;
#775000
1!
b10101000001010100000101010000010101 ,
b11 -
1/
1;
0@!
0A!
b11000000000100000000000100000000000 B!
b11000000000100000000000100000000000 C!
0G
1H
1J
b10 N
0P
0Q
b0 R
b11 S
b0 T
b0 U
b0 V
0Y
1Z
1[
1]
0`
1b
b1 g
b11000000000100000000000100000000000 i
b11000000000100000000000100000000000 j
b1111 m
b110 n
b10 o
b1 p
0r
b10101 t
#780000
0!
0;
#785000
1!
b1111000000111100000011110000001111 ,
b0 -
1.
0/
1;
0@!
0A!
b11000000000100000000000100000000000 B!
b11000000000100000000000100000000000 C!
1G
0H
1J
b10 N
0P
0Q
b0 R
b11 S
b0 T
b1 U
b0 V
1Y
1Z
1[
1]
0`
0b
b1 g
b11000000000100000000000100000000000 i
b11000000000100000000000100000000000 j
b1111 m
b0 n
b0 o
b0 p
b1111 t
#790000
0!
0;
#795000
1!
b10000000001000000000100000000010000 ,
b1 -
0.
1;
0@!
0A!
b11000000000100000000000100000000000 B!
b11000000000100000000000100000000000 C!
0G
0H
1J
b10 N
0P
0Q
b0 R
b11 S
b0 T
b0 U
b1 V
0Y
1Z
1[
1]
0`
0b
b1 g
b11000000000100000000000100000000000 i
b11000000000100000000000100000000000 j
b1111 m
b1 n
b0 o
b1 p
b10000 t
#800000
0!
0;
#805000
1!
b10100000001010000000101000000010100 ,
b10 -
1;
0@!
0A!
b11000000000100000000000100000000000 B!
b11000000000100000000000100000000000 C!
0G
0H
1J
b10 N
0P
0Q
b0 R
b11 S
b0 T
b1 U
b1 V
1Y
0Z
1[
1]
0`
0b
b1 g
b11000000000100000000000100000000000 i
b11000000000100000000000100000000000 j
b10100 m
b0 n
b10 o
b0 p
1r
b10100 t
#810000
0!
0;
#815000
1!
b10101000001010100000101010000010101 ,
b11 -
1/
1;
0@!
0A!
b11000000000100000000000100000000000 B!
b11000000000100000000000100000000000 C!
0G
1H
1J
b10 N
0P
0Q
b1 R
b11 S
b0 T
b0 U
b0 V
0Y
1Z
1[
1]
0`
1b
b1 g
b11000000000100000000000100000000000 i
b11000000000100000000000100000000000 j
b10100 m
b1 n
b10 o
b1 p
0r
b10101 t
#820000
0!
0;
#825000
1!
b10000000001000000000100000000010000 ,
b0 -
1.
0/
1;
0@!
0A!
b11000000000100000000000100000000000 B!
b11000000000100000000000100000000000 C!
1G
0H
1J
b10 N
0P
0Q
b1 R
b11 S
b0 T
b1 U
b0 V
1Y
1Z
1[
1]
0`
0b
b1 g
b11000000000100000000000100000000000 i
b11000000000100000000000100000000000 j
b1111 m
b1 n
b0 o
b0 p
b10000 t
#830000
0!
0;
#835000
1!
b10001000001000100000100010000010001 ,
b1 -
0.
1;
0@!
0A!
b11000000000100000000000100000000000 B!
b11000000000100000000000100000000000 C!
0G
0H
1J
b10 N
0P
0Q
b1 R
b11 S
b0 T
b0 U
b1 V
0Y
1Z
1[
1]
0`
0b
b1 g
b11000000000100000000000100000000000 i
b11000000000100000000000100000000000 j
b1111 m
b10 n
b0 o
b1 p
b10001 t
#840000
0!
0;
#845000
1!
b10101000001010100000101010000010101 ,
b10 -
1;
0@!
0A!
b11000000000100000000000100000000000 B!
b11000000000100000000000100000000000 C!
0G
0H
1J
b10 N
0P
0Q
b1 R
b11 S
b0 T
b1 U
b1 V
1Y
0Z
1[
1]
0`
0b
b1 g
b11000000000100000000000100000000000 i
b11000000000100000000000100000000000 j
b10100 m
b1 n
b10 o
b0 p
1r
b10101 t
#850000
0!
0;
#855000
1!
b10110000001011000000101100000010110 ,
b11 -
1/
1;
0@!
0A!
b11000000000100000000000100000000000 B!
b11000000000100000000000100000000000 C!
0G
1H
1J
b10 N
0P
0Q
b10 R
b11 S
b0 T
b0 U
b0 V
0Y
1Z
1[
1]
0`
1b
b1 g
b11000000000100000000000100000000000 i
b11000000000100000000000100000000000 j
b10100 m
b10 n
b10 o
b1 p
0r
b10110 t
#860000
0!
0;
#865000
1!
b10001000001000100000100010000010001 ,
b0 -
1.
0/
1;
0@!
0A!
b11000000000100000000000100000000000 B!
b11000000000100000000000100000000000 C!
1G
0H
1J
b10 N
0P
0Q
b10 R
b11 S
b0 T
b1 U
b0 V
1Y
1Z
1[
1]
0`
0b
b1 g
b11000000000100000000000100000000000 i
b11000000000100000000000100000000000 j
b1111 m
b10 n
b0 o
b0 p
b10001 t
#870000
0!
0;
#875000
1!
b10010000001001000000100100000010010 ,
b1 -
0.
1;
0@!
0A!
b11000000000100000000000100000000000 B!
b11000000000100000000000100000000000 C!
0G
0H
1J
b10 N
0P
0Q
b10 R
b11 S
b0 T
b0 U
b1 V
0Y
1Z
1[
1]
0`
0b
b1 g
b11000000000100000000000100000000000 i
b11000000000100000000000100000000000 j
b1111 m
b11 n
b0 o
b1 p
b10010 t
#880000
0!
0;
#885000
1!
b10110000001011000000101100000010110 ,
b10 -
1;
0@!
0A!
b11000000000100000000000100000000000 B!
b11000000000100000000000100000000000 C!
0G
0H
1J
b10 N
0P
0Q
b10 R
b11 S
b0 T
b1 U
b1 V
1Y
0Z
1[
1]
0`
0b
b1 g
b11000000000100000000000100000000000 i
b11000000000100000000000100000000000 j
b10100 m
b10 n
b10 o
b0 p
1r
b10110 t
#890000
0!
0;
#895000
1!
b10111000001011100000101110000010111 ,
b11 -
1/
1;
0@!
0A!
b11000000000100000000000100000000000 B!
b11000000000100000000000100000000000 C!
0G
1H
1J
b10 N
0P
0Q
b11 R
b11 S
b0 T
b0 U
b0 V
0Y
1Z
1[
1]
0`
1b
b1 g
b11000000000100000000000100000000000 i
b11000000000100000000000100000000000 j
b10100 m
b11 n
b10 o
b1 p
0r
b10111 t
#900000
0!
0;
#905000
1!
b10010000001001000000100100000010010 ,
b0 -
1.
0/
1;
0@!
0A!
b11000000000100000000000100000000000 B!
b11000000000100000000000100000000000 C!
1G
0H
1J
b10 N
0P
0Q
b11 R
b11 S
b0 T
b1 U
b0 V
1Y
1Z
1[
1]
0`
0b
b1 g
b11000000000100000000000100000000000 i
b11000000000100000000000100000000000 j
b1111 m
b11 n
b0 o
b0 p
b10010 t
#910000
0!
0;
#915000
1!
b10011000001001100000100110000010011 ,
b1 -
0.
1;
0@!
0A!
b11000000000100000000000100000000000 B!
b11000000000100000000000100000000000 C!
0G
0H
1J
b10 N
0P
0Q
b11 R
b11 S
b0 T
b0 U
b1 V
0Y
1Z
1[
1]
0`
0b
b1 g
b11000000000100000000000100000000000 i
b11000000000100000000000100000000000 j
b1111 m
b100 n
b0 o
b1 p
b10011 t
#920000
0!
0;
#925000
1!
b10111000001011100000101110000010111 ,
b10 -
1;
0@!
0A!
b11000000000100000000000100000000000 B!
b11000000000100000000000100000000000 C!
0G
0H
1J
b10 N
0P
0Q
b11 R
b11 S
b0 T
b1 U
b1 V
1Y
0Z
1[
1]
0`
0b
b1 g
b11000000000100000000000100000000000 i
b11000000000100000000000100000000000 j
b10100 m
b11 n
b10 o
b0 p
1r
b10111 t
#930000
0!
0;
#935000
1!
b11000000001100000000110000000011000 ,
b11 -
1/
1;
0@!
0A!
b11000000000100000000000100000000000 B!
b11000000000100000000000100000000000 C!
0G
1H
1J
b10 N
0P
0Q
b100 R
b11 S
b0 T
b0 U
b0 V
0Y
1Z
1[
1]
0`
1b
b1 g
b11000000000100000000000100000000000 i
b11000000000100000000000100000000000 j
b10100 m
b100 n
b10 o
b1 p
0r
b11000 t
#940000
0!
0;
#945000
1!
b10011000001001100000100110000010011 ,
b0 -
1.
0/
1;
0@!
0A!
b11000000000100000000000100000000000 B!
b11000000000100000000000100000000000 C!
1G
0H
1J
b10 N
0P
0Q
b100 R
b11 S
b0 T
b1 U
b0 V
1Y
1Z
1[
1]
0`
0b
b1 g
b11000000000100000000000100000000000 i
b11000000000100000000000100000000000 j
b1111 m
b100 n
b0 o
b0 p
b10011 t
#950000
0!
0;
#955000
1!
b10100000001010000000101000000010100 ,
b1 -
0.
1;
0@!
0A!
b11000000000100000000000100000000000 B!
b11000000000100000000000100000000000 C!
0G
0H
1J
b10 N
0P
0Q
b100 R
b11 S
b0 T
b0 U
b1 V
0Y
1Z
1[
1]
0`
0b
b1 g
b11000000000100000000000100000000000 i
b11000000000100000000000100000000000 j
b1111 m
b101 n
b0 o
b1 p
b10100 t
#960000
0!
0;
#965000
1!
b11000000001100000000110000000011000 ,
b10 -
1;
0@!
0A!
b11000000000100000000000100000000000 B!
b11000000000100000000000100000000000 C!
0G
0H
1J
b10 N
0P
0Q
b100 R
b11 S
b0 T
b1 U
b1 V
1Y
0Z
1[
1]
0`
0b
b1 g
b11000000000100000000000100000000000 i
b11000000000100000000000100000000000 j
b10100 m
b100 n
b10 o
b0 p
1r
b11000 t
#970000
0!
0;
#975000
1!
b11001000001100100000110010000011001 ,
b11 -
1/
1;
0@!
0A!
b11000000000100000000000100000000000 B!
b11000000000100000000000100000000000 C!
0G
1H
1J
b10 N
0P
0Q
b101 R
b11 S
b0 T
b0 U
b0 V
0Y
1Z
1[
1]
0`
1b
b1 g
b11000000000100000000000100000000000 i
b11000000000100000000000100000000000 j
b10100 m
b101 n
b10 o
b1 p
0r
b11001 t
#980000
0!
0;
#985000
1!
b10100000001010000000101000000010100 ,
b0 -
1.
0/
1;
0@!
0A!
b11000000000100000000000100000000000 B!
b11000000000100000000000100000000000 C!
1G
0H
1J
b10 N
0P
0Q
b101 R
b11 S
b0 T
b1 U
b0 V
1Y
1Z
1[
1]
0`
0b
b1 g
b11000000000100000000000100000000000 i
b11000000000100000000000100000000000 j
b1111 m
b101 n
b0 o
b0 p
b10100 t
#990000
0!
0;
#995000
1!
b10101000001010100000101010000010101 ,
b1 -
0.
1;
0@!
0A!
b11000000000100000000000100000000000 B!
b11000000000100000000000100000000000 C!
0G
0H
1J
b10 N
0P
0Q
b101 R
b11 S
b0 T
b0 U
b1 V
0Y
1Z
1[
1]
0`
0b
b1 g
b11000000000100000000000100000000000 i
b11000000000100000000000100000000000 j
b1111 m
b110 n
b0 o
b1 p
b10101 t
#1000000
0!
0;
