Copyright 1986-2018 Xilinx, Inc. All Rights Reserved.
---------------------------------------------------------------------------------------------------
| Tool Version : Vivado v.2018.2 (win64) Build 2258646 Thu Jun 14 20:03:12 MDT 2018
| Date         : Thu Jun 25 11:32:44 2020
| Host         : nit running 64-bit major release  (build 9200)
| Command      : report_drc -file top_drc_routed.rpt -pb top_drc_routed.pb -rpx top_drc_routed.rpx
| Design       : top
| Device       : xc7a200tfbg676-2
| Speed File   : -2
| Design State : Routed
---------------------------------------------------------------------------------------------------

Report DRC

Table of Contents
-----------------
1. REPORT SUMMARY
2. REPORT DETAILS

1. REPORT SUMMARY
-----------------
            Netlist: netlist
          Floorplan: design_1
      Design limits: <entire design considered>
           Ruledeck: default
             Max violations: <unlimited>
             Violations found: 65
+-----------+------------------+-----------------------------------------------------+------------+
| Rule      | Severity         | Description                                         | Violations |
+-----------+------------------+-----------------------------------------------------+------------+
| NSTD-1    | Critical Warning | Unspecified I/O Standard                            | 1          |
| UCIO-1    | Critical Warning | Unconstrained Logical Port                          | 1          |
| CFGBVS-1  | Warning          | Missing CFGBVS and CONFIG_VOLTAGE Design Properties | 1          |
| CHECK-3   | Warning          | Report rule limit reached                           | 1          |
| DPIP-1    | Warning          | Input pipelining                                    | 28         |
| DPOP-1    | Warning          | PREG Output pipelining                              | 3          |
| DPOP-2    | Warning          | MREG Output pipelining                              | 9          |
| DPREG-4   | Warning          | DSP48E1_PregDynOpmodeZmuxP:                         | 1          |
| REQP-1839 | Warning          | RAMB36 async control check                          | 20         |
+-----------+------------------+-----------------------------------------------------+------------+

2. REPORT DETAILS
-----------------
NSTD-1#1 Critical Warning
Unspecified I/O Standard  
37 out of 38 logical ports use I/O standard (IOSTANDARD) value 'DEFAULT', instead of a user assigned specific value. This may cause I/O contention or incompatibility with the board power or connectivity affecting performance, signal integrity or in extreme cases cause damage to the device or the components to which it is connected. To correct this violation, specify all I/O standards. This design will fail to generate a bitstream unless all logical ports have a user specified I/O standard value defined. To allow bitstream creation with unspecified I/O standard values (not recommended), use this command: set_property SEVERITY {Warning} [get_drc_checks NSTD-1].  NOTE: When using the Vivado Runs infrastructure (e.g. launch_runs Tcl command), add this command to a .tcl file and add that file as a pre-hook for write_bitstream step for the implementation run. Problem ports: data_i[18:0], data_o[7:0], memorySelect_i[1:0], clr_addr_i, done_o, nextMemory_wr_i, req_i, rst_n_i, start_i, valid_i, valid_o.
Related violations: <none>

UCIO-1#1 Critical Warning
Unconstrained Logical Port  
37 out of 38 logical ports have no user assigned specific location constraint (LOC). This may cause I/O contention or incompatibility with the board power or connectivity affecting performance, signal integrity or in extreme cases cause damage to the device or the components to which it is connected. To correct this violation, specify all pin locations. This design will fail to generate a bitstream unless all logical ports have a user specified site LOC constraint defined.  To allow bitstream creation with unspecified pin locations (not recommended), use this command: set_property SEVERITY {Warning} [get_drc_checks UCIO-1].  NOTE: When using the Vivado Runs infrastructure (e.g. launch_runs Tcl command), add this command to a .tcl file and add that file as a pre-hook for write_bitstream step for the implementation run.  Problem ports: data_i[18:0], data_o[7:0], memorySelect_i[1:0], clr_addr_i, done_o, nextMemory_wr_i, req_i, rst_n_i, start_i, valid_i, valid_o.
Related violations: <none>

CFGBVS-1#1 Warning
Missing CFGBVS and CONFIG_VOLTAGE Design Properties  
Neither the CFGBVS nor CONFIG_VOLTAGE voltage property is set in the current_design.  Configuration bank voltage select (CFGBVS) must be set to VCCO or GND, and CONFIG_VOLTAGE must be set to the correct configuration voltage, in order to determine the I/O voltage support for the pins in bank 0.  It is suggested to specify these either using the 'Edit Device Properties' function in the GUI or directly in the XDC file using the following syntax:

 set_property CFGBVS value1 [current_design]
 #where value1 is either VCCO or GND

 set_property CONFIG_VOLTAGE value2 [current_design]
 #where value2 is the voltage provided to configuration bank 0

Refer to the device configuration user guide for more information.
Related violations: <none>

CHECK-3#1 Warning
Report rule limit reached  
REQP-1839 rule limit reached: 20 violations have been found.
Related violations: <none>

DPIP-1#1 Warning
Input pipelining  
DSP CSCAddressDataControl/featureMapAddress0 input CSCAddressDataControl/featureMapAddress0/A[29:0] is not pipelined. Pipelining DSP48 input will improve performance.
Related violations: <none>

DPIP-1#2 Warning
Input pipelining  
DSP CSCAddressDataControl/featureMapAddress0 input CSCAddressDataControl/featureMapAddress0/B[17:0] is not pipelined. Pipelining DSP48 input will improve performance.
Related violations: <none>

DPIP-1#3 Warning
Input pipelining  
DSP CSCAddressDataControl/featureMapAddress0 input CSCAddressDataControl/featureMapAddress0/C[47:0] is not pipelined. Pipelining DSP48 input will improve performance.
Related violations: <none>

DPIP-1#4 Warning
Input pipelining  
DSP CSCAddressDataControl/featureMapAddress0__0 input CSCAddressDataControl/featureMapAddress0__0/A[29:0] is not pipelined. Pipelining DSP48 input will improve performance.
Related violations: <none>

DPIP-1#5 Warning
Input pipelining  
DSP CSCAddressDataControl/featureMapAddress0__0 input CSCAddressDataControl/featureMapAddress0__0/B[17:0] is not pipelined. Pipelining DSP48 input will improve performance.
Related violations: <none>

DPIP-1#6 Warning
Input pipelining  
DSP CSCAddressDataControl/featureMapAddress0__0 input CSCAddressDataControl/featureMapAddress0__0/C[47:0] is not pipelined. Pipelining DSP48 input will improve performance.
Related violations: <none>

DPIP-1#7 Warning
Input pipelining  
DSP CSCAddressDataControl/featureMapAddress0__1 input CSCAddressDataControl/featureMapAddress0__1/A[29:0] is not pipelined. Pipelining DSP48 input will improve performance.
Related violations: <none>

DPIP-1#8 Warning
Input pipelining  
DSP CSCAddressDataControl/featureMapAddress0__1 input CSCAddressDataControl/featureMapAddress0__1/B[17:0] is not pipelined. Pipelining DSP48 input will improve performance.
Related violations: <none>

DPIP-1#9 Warning
Input pipelining  
DSP CSCAddressDataControl/featureMapAddress0__1 input CSCAddressDataControl/featureMapAddress0__1/C[47:0] is not pipelined. Pipelining DSP48 input will improve performance.
Related violations: <none>

DPIP-1#10 Warning
Input pipelining  
DSP CSCAddressDataControl/featureMapAddress0__2 input CSCAddressDataControl/featureMapAddress0__2/A[29:0] is not pipelined. Pipelining DSP48 input will improve performance.
Related violations: <none>

DPIP-1#11 Warning
Input pipelining  
DSP CSCAddressDataControl/featureMapAddress0__2 input CSCAddressDataControl/featureMapAddress0__2/B[17:0] is not pipelined. Pipelining DSP48 input will improve performance.
Related violations: <none>

DPIP-1#12 Warning
Input pipelining  
DSP CSCAddressDataControl/featureMapAddress0__2 input CSCAddressDataControl/featureMapAddress0__2/C[47:0] is not pipelined. Pipelining DSP48 input will improve performance.
Related violations: <none>

DPIP-1#13 Warning
Input pipelining  
DSP CSCAddressDataControl/filColxRow0 input CSCAddressDataControl/filColxRow0/A[29:0] is not pipelined. Pipelining DSP48 input will improve performance.
Related violations: <none>

DPIP-1#14 Warning
Input pipelining  
DSP CSCAddressDataControl/filColxRow0 input CSCAddressDataControl/filColxRow0/B[17:0] is not pipelined. Pipelining DSP48 input will improve performance.
Related violations: <none>

DPIP-1#15 Warning
Input pipelining  
DSP CSCAddressDataControl/fmAddress_1_reg0 input CSCAddressDataControl/fmAddress_1_reg0/A[29:0] is not pipelined. Pipelining DSP48 input will improve performance.
Related violations: <none>

DPIP-1#16 Warning
Input pipelining  
DSP CSCAddressDataControl/fmAddress_1_reg0 input CSCAddressDataControl/fmAddress_1_reg0/B[17:0] is not pipelined. Pipelining DSP48 input will improve performance.
Related violations: <none>

DPIP-1#17 Warning
Input pipelining  
DSP CSCAddressDataControl/singleFilterWMDepth0 input CSCAddressDataControl/singleFilterWMDepth0/A[29:0] is not pipelined. Pipelining DSP48 input will improve performance.
Related violations: <none>

DPIP-1#18 Warning
Input pipelining  
DSP CSCAddressDataControl/singleFilterWMDepth0 input CSCAddressDataControl/singleFilterWMDepth0/B[17:0] is not pipelined. Pipelining DSP48 input will improve performance.
Related violations: <none>

DPIP-1#19 Warning
Input pipelining  
DSP CSCAddressDataControl/singleImageFMDepth0 input CSCAddressDataControl/singleImageFMDepth0/A[29:0] is not pipelined. Pipelining DSP48 input will improve performance.
Related violations: <none>

DPIP-1#20 Warning
Input pipelining  
DSP CSCAddressDataControl/singleImageFMDepth0 input CSCAddressDataControl/singleImageFMDepth0/B[17:0] is not pipelined. Pipelining DSP48 input will improve performance.
Related violations: <none>

DPIP-1#21 Warning
Input pipelining  
DSP CSCAddressDataControl/weightAddr_1_reg0 input CSCAddressDataControl/weightAddr_1_reg0/A[29:0] is not pipelined. Pipelining DSP48 input will improve performance.
Related violations: <none>

DPIP-1#22 Warning
Input pipelining  
DSP CSCAddressDataControl/weightAddr_1_reg0 input CSCAddressDataControl/weightAddr_1_reg0/B[17:0] is not pipelined. Pipelining DSP48 input will improve performance.
Related violations: <none>

DPIP-1#23 Warning
Input pipelining  
DSP CSCAddressDataControl/weightAddr_1_reg0 input CSCAddressDataControl/weightAddr_1_reg0/C[47:0] is not pipelined. Pipelining DSP48 input will improve performance.
Related violations: <none>

DPIP-1#24 Warning
Input pipelining  
DSP CSCAddressDataControl/weightAddr_2_reg0 input CSCAddressDataControl/weightAddr_2_reg0/B[17:0] is not pipelined. Pipelining DSP48 input will improve performance.
Related violations: <none>

DPIP-1#25 Warning
Input pipelining  
DSP CSCAddressDataControl/weightAddr_2_reg0 input CSCAddressDataControl/weightAddr_2_reg0/C[47:0] is not pipelined. Pipelining DSP48 input will improve performance.
Related violations: <none>

DPIP-1#26 Warning
Input pipelining  
DSP CSCAddressDataControl/weightAddr_2_reg2 input CSCAddressDataControl/weightAddr_2_reg2/A[29:0] is not pipelined. Pipelining DSP48 input will improve performance.
Related violations: <none>

DPIP-1#27 Warning
Input pipelining  
DSP CSCAddressDataControl/weightAddr_2_reg2 input CSCAddressDataControl/weightAddr_2_reg2/B[17:0] is not pipelined. Pipelining DSP48 input will improve performance.
Related violations: <none>

DPIP-1#28 Warning
Input pipelining  
DSP CSCAddressDataControl/weightAddr_2_reg2 input CSCAddressDataControl/weightAddr_2_reg2/C[47:0] is not pipelined. Pipelining DSP48 input will improve performance.
Related violations: <none>

DPOP-1#1 Warning
PREG Output pipelining  
DSP CSCAddressDataControl/filColxRow0 output CSCAddressDataControl/filColxRow0/P[47:0] is not pipelined (PREG=0). Pipelining the DSP48 output will improve performance and often saves power so it is suggested whenever possible to fully pipeline this function.  If this DSP48 function was inferred, it is suggested to describe an additional register stage after this function.  If the DSP48 was instantiated in the design, it is suggested to set the PREG attribute to 1.
Related violations: <none>

DPOP-1#2 Warning
PREG Output pipelining  
DSP CSCAddressDataControl/singleFilterWMDepth0 output CSCAddressDataControl/singleFilterWMDepth0/P[47:0] is not pipelined (PREG=0). Pipelining the DSP48 output will improve performance and often saves power so it is suggested whenever possible to fully pipeline this function.  If this DSP48 function was inferred, it is suggested to describe an additional register stage after this function.  If the DSP48 was instantiated in the design, it is suggested to set the PREG attribute to 1.
Related violations: <none>

DPOP-1#3 Warning
PREG Output pipelining  
DSP CSCAddressDataControl/singleImageFMDepth0 output CSCAddressDataControl/singleImageFMDepth0/P[47:0] is not pipelined (PREG=0). Pipelining the DSP48 output will improve performance and often saves power so it is suggested whenever possible to fully pipeline this function.  If this DSP48 function was inferred, it is suggested to describe an additional register stage after this function.  If the DSP48 was instantiated in the design, it is suggested to set the PREG attribute to 1.
Related violations: <none>

DPOP-2#1 Warning
MREG Output pipelining  
DSP CSCAddressDataControl/featureMapAddress0 multiplier stage CSCAddressDataControl/featureMapAddress0/P[47:0] is not pipelined (MREG=0). Pipelining the multiplier function will improve performance and will save significant power so it is suggested whenever possible to fully pipeline this function.  If this multiplier was inferred, it is suggested to describe an additional register stage after this function.  If there is no registered adder/accumulator following the multiply function, two pipeline stages are suggested to allow both the MREG and PREG registers to be used.  If the DSP48 was instantiated in the design, it is suggested to set both the MREG and PREG attributes to 1 when performing multiply functions.
Related violations: <none>

DPOP-2#2 Warning
MREG Output pipelining  
DSP CSCAddressDataControl/featureMapAddress0__0 multiplier stage CSCAddressDataControl/featureMapAddress0__0/P[47:0] is not pipelined (MREG=0). Pipelining the multiplier function will improve performance and will save significant power so it is suggested whenever possible to fully pipeline this function.  If this multiplier was inferred, it is suggested to describe an additional register stage after this function.  If there is no registered adder/accumulator following the multiply function, two pipeline stages are suggested to allow both the MREG and PREG registers to be used.  If the DSP48 was instantiated in the design, it is suggested to set both the MREG and PREG attributes to 1 when performing multiply functions.
Related violations: <none>

DPOP-2#3 Warning
MREG Output pipelining  
DSP CSCAddressDataControl/featureMapAddress0__1 multiplier stage CSCAddressDataControl/featureMapAddress0__1/P[47:0] is not pipelined (MREG=0). Pipelining the multiplier function will improve performance and will save significant power so it is suggested whenever possible to fully pipeline this function.  If this multiplier was inferred, it is suggested to describe an additional register stage after this function.  If there is no registered adder/accumulator following the multiply function, two pipeline stages are suggested to allow both the MREG and PREG registers to be used.  If the DSP48 was instantiated in the design, it is suggested to set both the MREG and PREG attributes to 1 when performing multiply functions.
Related violations: <none>

DPOP-2#4 Warning
MREG Output pipelining  
DSP CSCAddressDataControl/featureMapAddress0__2 multiplier stage CSCAddressDataControl/featureMapAddress0__2/P[47:0] is not pipelined (MREG=0). Pipelining the multiplier function will improve performance and will save significant power so it is suggested whenever possible to fully pipeline this function.  If this multiplier was inferred, it is suggested to describe an additional register stage after this function.  If there is no registered adder/accumulator following the multiply function, two pipeline stages are suggested to allow both the MREG and PREG registers to be used.  If the DSP48 was instantiated in the design, it is suggested to set both the MREG and PREG attributes to 1 when performing multiply functions.
Related violations: <none>

DPOP-2#5 Warning
MREG Output pipelining  
DSP CSCAddressDataControl/filColxRow0 multiplier stage CSCAddressDataControl/filColxRow0/P[47:0] is not pipelined (MREG=0). Pipelining the multiplier function will improve performance and will save significant power so it is suggested whenever possible to fully pipeline this function.  If this multiplier was inferred, it is suggested to describe an additional register stage after this function.  If there is no registered adder/accumulator following the multiply function, two pipeline stages are suggested to allow both the MREG and PREG registers to be used.  If the DSP48 was instantiated in the design, it is suggested to set both the MREG and PREG attributes to 1 when performing multiply functions.
Related violations: <none>

DPOP-2#6 Warning
MREG Output pipelining  
DSP CSCAddressDataControl/fmAddress_1_reg0 multiplier stage CSCAddressDataControl/fmAddress_1_reg0/P[47:0] is not pipelined (MREG=0). Pipelining the multiplier function will improve performance and will save significant power so it is suggested whenever possible to fully pipeline this function.  If this multiplier was inferred, it is suggested to describe an additional register stage after this function.  If there is no registered adder/accumulator following the multiply function, two pipeline stages are suggested to allow both the MREG and PREG registers to be used.  If the DSP48 was instantiated in the design, it is suggested to set both the MREG and PREG attributes to 1 when performing multiply functions.
Related violations: <none>

DPOP-2#7 Warning
MREG Output pipelining  
DSP CSCAddressDataControl/singleFilterWMDepth0 multiplier stage CSCAddressDataControl/singleFilterWMDepth0/P[47:0] is not pipelined (MREG=0). Pipelining the multiplier function will improve performance and will save significant power so it is suggested whenever possible to fully pipeline this function.  If this multiplier was inferred, it is suggested to describe an additional register stage after this function.  If there is no registered adder/accumulator following the multiply function, two pipeline stages are suggested to allow both the MREG and PREG registers to be used.  If the DSP48 was instantiated in the design, it is suggested to set both the MREG and PREG attributes to 1 when performing multiply functions.
Related violations: <none>

DPOP-2#8 Warning
MREG Output pipelining  
DSP CSCAddressDataControl/singleImageFMDepth0 multiplier stage CSCAddressDataControl/singleImageFMDepth0/P[47:0] is not pipelined (MREG=0). Pipelining the multiplier function will improve performance and will save significant power so it is suggested whenever possible to fully pipeline this function.  If this multiplier was inferred, it is suggested to describe an additional register stage after this function.  If there is no registered adder/accumulator following the multiply function, two pipeline stages are suggested to allow both the MREG and PREG registers to be used.  If the DSP48 was instantiated in the design, it is suggested to set both the MREG and PREG attributes to 1 when performing multiply functions.
Related violations: <none>

DPOP-2#9 Warning
MREG Output pipelining  
DSP CSCAddressDataControl/weightAddr_1_reg0 multiplier stage CSCAddressDataControl/weightAddr_1_reg0/P[47:0] is not pipelined (MREG=0). Pipelining the multiplier function will improve performance and will save significant power so it is suggested whenever possible to fully pipeline this function.  If this multiplier was inferred, it is suggested to describe an additional register stage after this function.  If there is no registered adder/accumulator following the multiply function, two pipeline stages are suggested to allow both the MREG and PREG registers to be used.  If the DSP48 was instantiated in the design, it is suggested to set both the MREG and PREG attributes to 1 when performing multiply functions.
Related violations: <none>

DPREG-4#1 Warning
DSP48E1_PregDynOpmodeZmuxP:  
The DSP48E1 cell CSCAddressDataControl/weightAddr_2_reg2 with the given dynamic OPMODE[6:0] connections may lead to an unregistered asynchronous feedback path without the PREG attribute enabled. Please refer to the user guide and if one of the internal P feedback opmodes is possible for this design the PREG attribute must be set to 1, currently set to 0
Related violations: <none>

REQP-1839#1 Warning
RAMB36 async control check  
The RAMB36E1 FeatureMapMemory/FM[3].FM/r_2p_reg_0_0 has an input control pin FeatureMapMemory/FM[3].FM/r_2p_reg_0_0/ADDRARDADDR[0] (net: FeatureMapMemory/FM[3].FM/fmAddress_reg[59][0]) which is driven by a register (FeatureMapMemory/fmAddress_reg[45]) that has an active asychronous set or reset. This may cause corruption of the memory contents and/or read values when the set/reset is asserted and is not analyzed by the default static timing analysis. It is suggested to eliminate the use of a set/reset to registers driving this RAMB pin or else use a synchronous reset in which the assertion of the reset is timed by default.
Related violations: <none>

REQP-1839#2 Warning
RAMB36 async control check  
The RAMB36E1 FeatureMapMemory/FM[3].FM/r_2p_reg_0_0 has an input control pin FeatureMapMemory/FM[3].FM/r_2p_reg_0_0/ADDRARDADDR[10] (net: FeatureMapMemory/FM[3].FM/fmAddress_reg[59][10]) which is driven by a register (FeatureMapMemory/fmAddress_reg[55]) that has an active asychronous set or reset. This may cause corruption of the memory contents and/or read values when the set/reset is asserted and is not analyzed by the default static timing analysis. It is suggested to eliminate the use of a set/reset to registers driving this RAMB pin or else use a synchronous reset in which the assertion of the reset is timed by default.
Related violations: <none>

REQP-1839#3 Warning
RAMB36 async control check  
The RAMB36E1 FeatureMapMemory/FM[3].FM/r_2p_reg_0_0 has an input control pin FeatureMapMemory/FM[3].FM/r_2p_reg_0_0/ADDRARDADDR[11] (net: FeatureMapMemory/FM[3].FM/fmAddress_reg[59][11]) which is driven by a register (FeatureMapMemory/fmAddress_reg[56]) that has an active asychronous set or reset. This may cause corruption of the memory contents and/or read values when the set/reset is asserted and is not analyzed by the default static timing analysis. It is suggested to eliminate the use of a set/reset to registers driving this RAMB pin or else use a synchronous reset in which the assertion of the reset is timed by default.
Related violations: <none>

REQP-1839#4 Warning
RAMB36 async control check  
The RAMB36E1 FeatureMapMemory/FM[3].FM/r_2p_reg_0_0 has an input control pin FeatureMapMemory/FM[3].FM/r_2p_reg_0_0/ADDRARDADDR[12] (net: FeatureMapMemory/FM[3].FM/fmAddress_reg[59][12]) which is driven by a register (FeatureMapMemory/fmAddress_reg[57]) that has an active asychronous set or reset. This may cause corruption of the memory contents and/or read values when the set/reset is asserted and is not analyzed by the default static timing analysis. It is suggested to eliminate the use of a set/reset to registers driving this RAMB pin or else use a synchronous reset in which the assertion of the reset is timed by default.
Related violations: <none>

REQP-1839#5 Warning
RAMB36 async control check  
The RAMB36E1 FeatureMapMemory/FM[3].FM/r_2p_reg_0_0 has an input control pin FeatureMapMemory/FM[3].FM/r_2p_reg_0_0/ADDRARDADDR[13] (net: FeatureMapMemory/FM[3].FM/fmAddress_reg[59][13]) which is driven by a register (FeatureMapMemory/fmAddress_reg[58]) that has an active asychronous set or reset. This may cause corruption of the memory contents and/or read values when the set/reset is asserted and is not analyzed by the default static timing analysis. It is suggested to eliminate the use of a set/reset to registers driving this RAMB pin or else use a synchronous reset in which the assertion of the reset is timed by default.
Related violations: <none>

REQP-1839#6 Warning
RAMB36 async control check  
The RAMB36E1 FeatureMapMemory/FM[3].FM/r_2p_reg_0_0 has an input control pin FeatureMapMemory/FM[3].FM/r_2p_reg_0_0/ADDRARDADDR[14] (net: FeatureMapMemory/FM[3].FM/fmAddress_reg[59][14]) which is driven by a register (FeatureMapMemory/fmAddress_reg[59]) that has an active asychronous set or reset. This may cause corruption of the memory contents and/or read values when the set/reset is asserted and is not analyzed by the default static timing analysis. It is suggested to eliminate the use of a set/reset to registers driving this RAMB pin or else use a synchronous reset in which the assertion of the reset is timed by default.
Related violations: <none>

REQP-1839#7 Warning
RAMB36 async control check  
The RAMB36E1 FeatureMapMemory/FM[3].FM/r_2p_reg_0_0 has an input control pin FeatureMapMemory/FM[3].FM/r_2p_reg_0_0/ADDRARDADDR[1] (net: FeatureMapMemory/FM[3].FM/fmAddress_reg[59][1]) which is driven by a register (FeatureMapMemory/fmAddress_reg[46]) that has an active asychronous set or reset. This may cause corruption of the memory contents and/or read values when the set/reset is asserted and is not analyzed by the default static timing analysis. It is suggested to eliminate the use of a set/reset to registers driving this RAMB pin or else use a synchronous reset in which the assertion of the reset is timed by default.
Related violations: <none>

REQP-1839#8 Warning
RAMB36 async control check  
The RAMB36E1 FeatureMapMemory/FM[3].FM/r_2p_reg_0_0 has an input control pin FeatureMapMemory/FM[3].FM/r_2p_reg_0_0/ADDRARDADDR[2] (net: FeatureMapMemory/FM[3].FM/fmAddress_reg[59][2]) which is driven by a register (FeatureMapMemory/fmAddress_reg[47]) that has an active asychronous set or reset. This may cause corruption of the memory contents and/or read values when the set/reset is asserted and is not analyzed by the default static timing analysis. It is suggested to eliminate the use of a set/reset to registers driving this RAMB pin or else use a synchronous reset in which the assertion of the reset is timed by default.
Related violations: <none>

REQP-1839#9 Warning
RAMB36 async control check  
The RAMB36E1 FeatureMapMemory/FM[3].FM/r_2p_reg_0_0 has an input control pin FeatureMapMemory/FM[3].FM/r_2p_reg_0_0/ADDRARDADDR[3] (net: FeatureMapMemory/FM[3].FM/fmAddress_reg[59][3]) which is driven by a register (FeatureMapMemory/fmAddress_reg[48]) that has an active asychronous set or reset. This may cause corruption of the memory contents and/or read values when the set/reset is asserted and is not analyzed by the default static timing analysis. It is suggested to eliminate the use of a set/reset to registers driving this RAMB pin or else use a synchronous reset in which the assertion of the reset is timed by default.
Related violations: <none>

REQP-1839#10 Warning
RAMB36 async control check  
The RAMB36E1 FeatureMapMemory/FM[3].FM/r_2p_reg_0_0 has an input control pin FeatureMapMemory/FM[3].FM/r_2p_reg_0_0/ADDRARDADDR[4] (net: FeatureMapMemory/FM[3].FM/fmAddress_reg[59][4]) which is driven by a register (FeatureMapMemory/fmAddress_reg[49]) that has an active asychronous set or reset. This may cause corruption of the memory contents and/or read values when the set/reset is asserted and is not analyzed by the default static timing analysis. It is suggested to eliminate the use of a set/reset to registers driving this RAMB pin or else use a synchronous reset in which the assertion of the reset is timed by default.
Related violations: <none>

REQP-1839#11 Warning
RAMB36 async control check  
The RAMB36E1 FeatureMapMemory/FM[3].FM/r_2p_reg_0_0 has an input control pin FeatureMapMemory/FM[3].FM/r_2p_reg_0_0/ADDRARDADDR[5] (net: FeatureMapMemory/FM[3].FM/fmAddress_reg[59][5]) which is driven by a register (FeatureMapMemory/fmAddress_reg[50]) that has an active asychronous set or reset. This may cause corruption of the memory contents and/or read values when the set/reset is asserted and is not analyzed by the default static timing analysis. It is suggested to eliminate the use of a set/reset to registers driving this RAMB pin or else use a synchronous reset in which the assertion of the reset is timed by default.
Related violations: <none>

REQP-1839#12 Warning
RAMB36 async control check  
The RAMB36E1 FeatureMapMemory/FM[3].FM/r_2p_reg_0_0 has an input control pin FeatureMapMemory/FM[3].FM/r_2p_reg_0_0/ADDRARDADDR[6] (net: FeatureMapMemory/FM[3].FM/fmAddress_reg[59][6]) which is driven by a register (FeatureMapMemory/fmAddress_reg[51]) that has an active asychronous set or reset. This may cause corruption of the memory contents and/or read values when the set/reset is asserted and is not analyzed by the default static timing analysis. It is suggested to eliminate the use of a set/reset to registers driving this RAMB pin or else use a synchronous reset in which the assertion of the reset is timed by default.
Related violations: <none>

REQP-1839#13 Warning
RAMB36 async control check  
The RAMB36E1 FeatureMapMemory/FM[3].FM/r_2p_reg_0_0 has an input control pin FeatureMapMemory/FM[3].FM/r_2p_reg_0_0/ADDRARDADDR[7] (net: FeatureMapMemory/FM[3].FM/fmAddress_reg[59][7]) which is driven by a register (FeatureMapMemory/fmAddress_reg[52]) that has an active asychronous set or reset. This may cause corruption of the memory contents and/or read values when the set/reset is asserted and is not analyzed by the default static timing analysis. It is suggested to eliminate the use of a set/reset to registers driving this RAMB pin or else use a synchronous reset in which the assertion of the reset is timed by default.
Related violations: <none>

REQP-1839#14 Warning
RAMB36 async control check  
The RAMB36E1 FeatureMapMemory/FM[3].FM/r_2p_reg_0_0 has an input control pin FeatureMapMemory/FM[3].FM/r_2p_reg_0_0/ADDRARDADDR[8] (net: FeatureMapMemory/FM[3].FM/fmAddress_reg[59][8]) which is driven by a register (FeatureMapMemory/fmAddress_reg[53]) that has an active asychronous set or reset. This may cause corruption of the memory contents and/or read values when the set/reset is asserted and is not analyzed by the default static timing analysis. It is suggested to eliminate the use of a set/reset to registers driving this RAMB pin or else use a synchronous reset in which the assertion of the reset is timed by default.
Related violations: <none>

REQP-1839#15 Warning
RAMB36 async control check  
The RAMB36E1 FeatureMapMemory/FM[3].FM/r_2p_reg_0_0 has an input control pin FeatureMapMemory/FM[3].FM/r_2p_reg_0_0/ADDRARDADDR[9] (net: FeatureMapMemory/FM[3].FM/fmAddress_reg[59][9]) which is driven by a register (FeatureMapMemory/fmAddress_reg[54]) that has an active asychronous set or reset. This may cause corruption of the memory contents and/or read values when the set/reset is asserted and is not analyzed by the default static timing analysis. It is suggested to eliminate the use of a set/reset to registers driving this RAMB pin or else use a synchronous reset in which the assertion of the reset is timed by default.
Related violations: <none>

REQP-1839#16 Warning
RAMB36 async control check  
The RAMB36E1 FeatureMapMemory/FM[3].FM/r_2p_reg_0_0 has an input control pin FeatureMapMemory/FM[3].FM/r_2p_reg_0_0/RSTRAMARSTRAM (net: FeatureMapMemory/FM[3].FM/r_2p_reg_0_0_i_1__3_n_0) which is driven by a register (rdEn_reg[0]) that has an active asychronous set or reset. This may cause corruption of the memory contents and/or read values when the set/reset is asserted and is not analyzed by the default static timing analysis. It is suggested to eliminate the use of a set/reset to registers driving this RAMB pin or else use a synchronous reset in which the assertion of the reset is timed by default.
Related violations: <none>

REQP-1839#17 Warning
RAMB36 async control check  
The RAMB36E1 FeatureMapMemory/FM[3].FM/r_2p_reg_0_0 has an input control pin FeatureMapMemory/FM[3].FM/r_2p_reg_0_0/RSTRAMARSTRAM (net: FeatureMapMemory/FM[3].FM/r_2p_reg_0_0_i_1__3_n_0) which is driven by a register (rdEn_reg[1]) that has an active asychronous set or reset. This may cause corruption of the memory contents and/or read values when the set/reset is asserted and is not analyzed by the default static timing analysis. It is suggested to eliminate the use of a set/reset to registers driving this RAMB pin or else use a synchronous reset in which the assertion of the reset is timed by default.
Related violations: <none>

REQP-1839#18 Warning
RAMB36 async control check  
The RAMB36E1 FeatureMapMemory/FM[3].FM/r_2p_reg_0_0 has an input control pin FeatureMapMemory/FM[3].FM/r_2p_reg_0_0/RSTRAMARSTRAM (net: FeatureMapMemory/FM[3].FM/r_2p_reg_0_0_i_1__3_n_0) which is driven by a register (readFM2o_reg) that has an active asychronous set or reset. This may cause corruption of the memory contents and/or read values when the set/reset is asserted and is not analyzed by the default static timing analysis. It is suggested to eliminate the use of a set/reset to registers driving this RAMB pin or else use a synchronous reset in which the assertion of the reset is timed by default.
Related violations: <none>

REQP-1839#19 Warning
RAMB36 async control check  
The RAMB36E1 FeatureMapMemory/FM[3].FM/r_2p_reg_0_0 has an input control pin FeatureMapMemory/FM[3].FM/r_2p_reg_0_0/WEA[0] (net: FeatureMapMemory/FM[3].FM/wr013_out) which is driven by a register (FeatureMapMemory/wrEn_reg[0]) that has an active asychronous set or reset. This may cause corruption of the memory contents and/or read values when the set/reset is asserted and is not analyzed by the default static timing analysis. It is suggested to eliminate the use of a set/reset to registers driving this RAMB pin or else use a synchronous reset in which the assertion of the reset is timed by default.
Related violations: <none>

REQP-1839#20 Warning
RAMB36 async control check  
The RAMB36E1 FeatureMapMemory/FM[3].FM/r_2p_reg_0_0 has an input control pin FeatureMapMemory/FM[3].FM/r_2p_reg_0_0/WEA[0] (net: FeatureMapMemory/FM[3].FM/wr013_out) which is driven by a register (FeatureMapMemory/wrEn_reg[1]) that has an active asychronous set or reset. This may cause corruption of the memory contents and/or read values when the set/reset is asserted and is not analyzed by the default static timing analysis. It is suggested to eliminate the use of a set/reset to registers driving this RAMB pin or else use a synchronous reset in which the assertion of the reset is timed by default.
Related violations: <none>


